…
``` r
dmnnt_trees <- vancouver_trees %>%
  group_by(neighbourhood_name) %>%
  count(species_name) %>%
  arrange(desc(n)) %>%
  top_n(1)
```

    ## Selecting by n

``` r
print(dmnnt_trees)
```

    ## # A tibble: 22 × 3
    ## # Groups:   neighbourhood_name [22]
    ##    neighbourhood_name       species_name     n
    ##    <chr>                    <chr>        <int>
    ##  1 VICTORIA-FRASERVIEW      CERASIFERA    1241
    ##  2 KITSILANO                PLATANOIDES   1188
    ##  3 DUNBAR-SOUTHLANDS        PLATANOIDES   1165
    ##  4 SHAUGHNESSY              PLATANOIDES   1139
    ##  5 KERRISDALE               PLATANOIDES   1067
    ##  6 DOWNTOWN                 RUBRUM        1019
    ##  7 KENSINGTON-CEDAR COTTAGE SERRULATA     1002
    ##  8 RENFREW-COLLINGWOOD      SERRULATA      980
    ##  9 HASTINGS-SUNRISE         CERASIFERA     972
    ## 10 MOUNT PLEASANT           SERRULATA      948
    ## # … with 12 more rows
…
